client/Post/PostServiceStub$GetPostByIdResponse$Factory.class
client/Comment/CommentServiceStub$GetCommentsByPost$Factory.class
servlet/AddCommentServlet.class
model/Comment.class
client/Post/PostServiceStub$User.class
client/Comment/CommentServiceStub$2.class
client/Post/PostServiceStub$AddPostResponse$Factory.class
client/Comment/CommentServiceStub$GetCommentsByPost.class
servlet/AddPostServlet.class
client/Post/PostServiceStub$1.class
client/Comment/CommentServiceCallbackHandler.class
client/User/UserServiceStub.class
client/Post/PostServiceStub$PostImage.class
client/Comment/CommentServiceStub$AddCommentResponse.class
client/User/UserServiceStub$User$Factory.class
client/Comment/CommentServiceStub$Comment$Factory.class
client/User/UserServiceStub$Login$Factory.class
client/Post/PostServiceStub$AddPost$Factory.class
client/Comment/CommentServiceStub.class
main.class
client/Comment/CommentClient.class
client/User/UserServiceStub$LoginResponse$Factory.class
client/User/UserServiceCallbackHandler.class
client/Comment/CommentServiceStub$AddCommentResponse$Factory.class
client/Post/PostServiceStub$ExtensionMapper.class
client/Post/PostServiceStub$AddPost.class
client/User/UserServiceStub$User.class
client/Post/PostServiceStub$Post.class
model/PostImage.class
client/Post/PostServiceStub$3.class
client/Comment/CommentServiceStub$1.class
client/Post/PostServiceStub$Comment.class
client/User/UserServiceStub$LoginResponse.class
client/Comment/CommentServiceStub$Post$Factory.class
client/Comment/CommentServiceStub$AddComment$Factory.class
client/Post/PostServiceStub$AllPostsResponse.class
client/Post/PostServiceStub$AllPostsResponse$Factory.class
client/User/UserServiceStub$Login.class
client/Post/PostServiceStub$User$Factory.class
client/User/UserServiceStub$ExtensionMapper.class
client/Post/PostServiceStub$Comment$Factory.class
client/Comment/CommentServiceStub$Comment.class
model/Post.class
client/Post/PostServiceCallbackHandler.class
client/Comment/CommentServiceStub$ExtensionMapper.class
servlet/DeconnexionServlet.class
client/Post/PostServiceStub$GetPostByIdResponse.class
servlet/PostServlet.class
client/Comment/CommentServiceStub$AddComment.class
client/Comment/CommentServiceStub$User.class
client/Post/PostServiceStub.class
client/Post/PostServiceStub$Post$Factory.class
client/Post/PostServiceStub$GetPostById$Factory.class
client/Post/PostClient.class
client/Post/PostServiceStub$PostImage$Factory.class
client/Post/PostServiceStub$AllPosts.class
client/Comment/CommentServiceStub$GetCommentsByPostResponse.class
client/Post/PostServiceStub$AllPosts$Factory.class
client/Comment/CommentServiceStub$Post.class
client/Post/PostServiceStub$2.class
client/User/UserClient.class
client/User/UserServiceStub$1.class
client/Comment/CommentServiceStub$User$Factory.class
model/User.class
client/Comment/CommentServiceStub$GetCommentsByPostResponse$Factory.class
servlet/ConnexionServlet.class
client/Post/PostServiceStub$GetPostById.class
client/Post/PostServiceStub$AddPostResponse.class
